{
  "project_info": {
    "project_number": "692089123839",
    "firebase_url": "https://ahujabrothers-162411.firebaseio.com",
    "project_id": "ahujabrothers-162411",
    "storage_bucket": "ahujabrothers-162411.appspot.com"
  },
  "client": [
    {
      "client_info": {
        "mobilesdk_app_id": "1:692089123839:android:49edac876942f6d6",
        "android_client_info": {
          "package_name": "com.ahujaBros"
        }
      },
      "oauth_client": [
        {
          "client_id": "692089123839-ijp49asa2mh4t47ekuvnga0nadrgt02j.apps.googleusercontent.com",
          "client_type": 3
        }
      ],
      "api_key": [
        {
          "current_key": "AIzaSyAv4TeSJaWj7ZtB6CKf1Blj7mNFT-IygD0"
        }
      ],
      "services": {
        "analytics_service": {
          "status": 1
        },
        "appinvite_service": {
          "status": 1,
          "other_platform_oauth_client": []
        },
        "ads_service": {
          "status": 2
        }
      }
    }
  ],
  "configuration_version": "1"
}